5주차/_service/20181016222609_SimulateISim_201524648_week0502_tb/week0502_tb.vcd
$date
   Tue Oct 16 22:26:13 2018
$end
$version
  P.15xf
$end
$timescale
  1ps
$end
$scope module week0502_tb $end
$var wire 1 ! Dout [3] $end
$var wire 1 " Dout [2] $end
$var wire 1 # Dout [1] $end
$var wire 1 $ Dout [0] $end
$var reg 2 % AD [1:0] $end
$var reg 1 & CLK $end
$var reg 4 ' Din [3:0] $end
$var reg 1 ( RST $end
$var reg 1 ) RW $end
$upscope $end
$enddefinitions $end
#0
$dumpvars
0$
0#
0"
0!
b0 %
0&
b0 '
1(
0)
$end
#100000
1&
0(
#200000
0&
#300000
1$
1#
1"
1!
b10 %
1&
b1111 '
1)
#400000
b0 %
0&
b0 '
0)
#500000
1&
#600000
0&
#700000
1&
b110 '
#800000
0&
#900000
1&
#1000000
0&
#1100000
0$
0!
1&
1)
#1200000
0&
b0 '
0)
#1300000
1&
#1400000
0&
#1500000
0"
1!
1&
b1010 '
1)
#1600000
0&
b0 '
0)
