5주차/_service/20181017220732_SimulateISim_201524648_week0503_tb/week0503_tb.vcd
$date
   Wed Oct 17 22:07:36 2018
$end
$version
  P.15xf
$end
$timescale
  1ps
$end
$scope module week0503_tb $end
$var wire 1 ! ADout [1] $end
$var wire 1 " ADout [0] $end
$var wire 1 # Dout [3] $end
$var wire 1 $ Dout [2] $end
$var wire 1 % Dout [1] $end
$var wire 1 & Dout [0] $end
$var reg 1 ' CLK $end
$var reg 10 ( Dec [9:0] $end
$var reg 1 ) RST $end
$upscope $end
$enddefinitions $end
#0
$dumpvars
0'
b0 (
1)
0"
0!
0&
0%
0$
0#
$end
#100000
1'
0)
#200000
0'
#300000
1'
b1000 (
#400000
0'
#500000
1'
b10 (
#600000
0'
#700000
1'
b1000000000 (
#800000
0'
#900000
1'
b0 (
1&
0%
#1000000
0'
#1100000
1'
b1000 (
0&
#1200000
0'
#1300000
1'
b10 (
#1400000
0'
#1500000
1'
b1000000000 (
1!
#1600000
0'
#1700000
1'
b1000 (
0!
#1800000
0'
#1900000
1'
b10 (
#2000000
0'
#2100000
1'
b1000000000 (
1!
#2200000
0'
#2300000
1'
b0 (
0!
1&
1%
