5주차/_service/20181017210837_SimulateISim_201524648_week0503_tb/week0503_tb.vcd
$date
   Wed Oct 17 21:08:41 2018
$end
$version
  P.15xf
$end
$timescale
  1ps
$end
$scope module week0503_tb $end
$var wire 1 ! Dout [3] $end
$var wire 1 " Dout [2] $end
$var wire 1 # Dout [1] $end
$var wire 1 $ Dout [0] $end
$var reg 1 % CLK $end
$var reg 10 & Dec [9:0] $end
$var reg 1 ' RST $end
$upscope $end
$enddefinitions $end
#0
$dumpvars
0%
b0 &
0'
x$
x#
x"
x!
$end
#100000
1%
1'
0$
0#
0"
0!
#200000
0%
0'
#300000
1%
b1000 &
#400000
0%
b0 &
#500000
1%
b10 &
#600000
0%
b0 &
#700000
1%
b1000000000 &
#800000
0%
b0 &
#900000
1%
b1000001010 &
#1000000
0%
b0 &
