5주차/_service/20181016233857_SimulateISim_201524648_week0502_tb/week0502_tb.vcd
$date
   Tue Oct 16 23:39:01 2018
$end
$version
  P.15xf
$end
$timescale
  1ps
$end
$scope module week0502_tb $end
$var wire 1 ! Dout [3] $end
$var wire 1 " Dout [2] $end
$var wire 1 # Dout [1] $end
$var wire 1 $ Dout [0] $end
$var reg 2 % AD [1:0] $end
$var reg 1 & CLK $end
$var reg 4 ' Din [3:0] $end
$var reg 1 ( RST $end
$var reg 1 ) RW $end
$upscope $end
$enddefinitions $end
#0
$dumpvars
0$
0#
0"
0!
b0 %
0&
b0 '
1(
0)
$end
#100000
1&
0(
#200000
0&
#300000
1&
#400000
0&
#500000
1&
b1100 '
1)
#600000
1"
1!
0&
b0 '
0)
#700000
1&
#800000
0&
#900000
1&
#1000000
0&
#1100000
1&
#1200000
0&
#1300000
1&
#1400000
0"
0!
0&
b1111 '
1)
#1500000
1"
1!
1&
b0 '
0)
#1600000
0&
#1700000
1&
#1800000
0&
b1100 '
#1900000
1&
b0 '
#2000000
0"
0!
0&
1)
#2100000
1"
1!
1&
0)
#2200000
0&
b110 '
#2300000
1&
b0 '
#2400000
0&
#2500000
0"
0!
1&
b11 '
1)
#2600000
1$
1#
0&
b0 '
0)
